Gov 50 Final Project
…
Simple feature collection with 54774 features and 4 fields (with 120 geometries empty)
Geometry type: MULTIPOLYGON
Dimension:     XY
Bounding box:  xmin: -124.4096 ymin: 32.53444 xmax: -114.1312 ymax: 42.00948
Geodetic CRS:  NAD83
# A tibble: 54,774 × 5
   GEOID       NAME            varia…¹ value                  geometry
   <chr>       <chr>           <chr>   <dbl>        <MULTIPOLYGON [°]>
 1 06077005127 Census Tract 5… Hispan…  2649 (((-121.2871 37.83381, -…
 2 06077005127 Census Tract 5… White     910 (((-121.2871 37.83381, -…
 3 06077005127 Census Tract 5… Black     408 (((-121.2871 37.83381, -…
 4 06077005127 Census Tract 5… Native     24 (((-121.2871 37.83381, -…
 5 06077005127 Census Tract 5… Asian    1697 (((-121.2871 37.83381, -…
 6 06077005127 Census Tract 5… Total    6129 (((-121.2871 37.83381, -…
 7 06077003406 Census Tract 3… Hispan…  1121 (((-121.309 38.02824, -1…
 8 06077003406 Census Tract 3… White     406 (((-121.309 38.02824, -1…
 9 06077003406 Census Tract 3… Black     925 (((-121.309 38.02824, -1…
10 06077003406 Census Tract 3… Native     14 (((-121.309 38.02824, -1…
# … with 54,764 more rows, and abbreviated variable name ¹​variable
…
cali_race

Simple feature collection with 290 features and 6 fields
Geometry type: MULTIPOLYGON
Dimension:     XY
Bounding box:  xmin: -124.4096 ymin: 32.53444 xmax: -114.1312 ymax: 42.00948
Geodetic CRS:  NAD83
# A tibble: 290 × 7
   GEOID NAME         varia…¹  value summa…²                  geometry
 * <chr> <chr>        <chr>    <dbl>   <dbl>        <MULTIPOLYGON [°]>
 1 06037 Los Angeles… Hispan… 4.80e6  1.00e7 (((-118.6044 33.47855, -…
 2 06037 Los Angeles… White   2.56e6  1.00e7 (((-118.6044 33.47855, -…
 3 06037 Los Angeles… Black   7.61e5  1.00e7 (((-118.6044 33.47855, -…
 4 06037 Los Angeles… Native  1.85e4  1.00e7 (((-118.6044 33.47855, -…
 5 06037 Los Angeles… Asian   1.47e6  1.00e7 (((-118.6044 33.47855, -…
 6 06023 Humboldt Co… Hispan… 1.85e4  1.36e5 (((-124.4086 40.4432, -1…
 7 06023 Humboldt Co… White   9.33e4  1.36e5 (((-124.4086 40.4432, -1…
 8 06023 Humboldt Co… Black   1.73e3  1.36e5 (((-124.4086 40.4432, -1…
 9 06023 Humboldt Co… Native  7.45e3  1.36e5 (((-124.4086 40.4432, -1…
10 06023 Humboldt Co… Asian   3.50e3  1.36e5 (((-124.4086 40.4432, -1…
# … with 280 more rows, 1 more variable: percent <dbl>, and
#   abbreviated variable names ¹​variable, ²​summary_value
…
